digraph {
Context [ label=" Context " shape= box ]
Interface [ label=" Interface " shape= box ]
Machine_Appartient [ label=" Machine_Appartient " shape= box ]
Machine_Boutique [ label=" Machine_Boutique " shape= box ]
Machine_Cassette [ label=" Machine_Cassette " shape= box ]
Machine_Client [ label=" Machine_Client " shape= box ]
Machine_Contient1 [ label=" Machine_Contient1 " shape= box ]
Machine_Contient2 [ label=" Machine_Contient2 " shape= box ]
Machine_Emprunt [ label=" Machine_Emprunt " shape= box ]
Machine_Episode [ label=" Machine_Episode " shape= box ]
Machine_Film [ label=" Machine_Film " shape= box ]
Machine_Possede [ label=" Machine_Possede " shape= box ]
Machine_Reservation [ label=" Machine_Reservation " shape= box ]

"Interface" -> "Context" [style= dotted ]
"Machine_Appartient" -> "Context" [style= dotted ]
"Machine_Boutique" -> "Context" [style= dotted ]
"Machine_Cassette" -> "Context" [style= dotted ]
"Machine_Client" -> "Context" [style= dotted ]
"Machine_Contient1" -> "Context" [style= dotted ]
"Machine_Contient2" -> "Context" [style= dotted ]
"Machine_Emprunt" -> "Context" [style= dotted ]
"Machine_Episode" -> "Context" [style= dotted ]
"Machine_Film" -> "Context" [style= dotted ]
"Machine_Possede" -> "Context" [style= dotted ]
"Machine_Reservation" -> "Context" [style= dotted ]
}
